++++++++++++++++++++++++++++++++++++
NAME: 
StudentID: 
++++++++++++++++++++++++++++++++++++
SUBJECT         MARKS         GRADE


Bangla                     F
English          444             A+
Math             00            F
ICT                        F
++++++++++++++++++++++++++++++++++++
NAME: mazharul islam
StudentID: 161953
++++++++++++++++++++++++++++++++++++
SUBJECT         MARKS         GRADE


Bangla                     F
English          444             A+
Math             00            F
ICT                        F
++++++++++++++++++++++++++++++++++++
NAME: mazharul islam
StudentID: 161953
++++++++++++++++++++++++++++++++++++
SUBJECT         MARKS         GRADE


Bangla           33               F
English                       F
Math                          F
ICT              99               A+
++++++++++++++++++++++++++++++++++++
NAME: mazharul islam
StudentID: 161953
++++++++++++++++++++++++++++++++++++
SUBJECT         MARKS         GRADE


Bangla           33               F
English          88               A+
Math             88               A+
ICT              99               A+
++++++++++++++++++++++++++++++++++++
NAME: mazharul islam
StudentID: 161953
++++++++++++++++++++++++++++++++++++
SUBJECT         MARKS         GRADE


Bangla                        F
English                       F
Math                          F
ICT                           F
++++++++++++++++++++++++++++++++++++
NAME: mazharul islam
StudentID: 161953
++++++++++++++++++++++++++++++++++++
SUBJECT         MARKS         GRADE


Bangla                     F
English                    F
Math                       F
ICT                        F
++++++++++++++++++++++++++++++++++++
NAME: mazharul islam
StudentID: 161953
++++++++++++++++++++++++++++++++++++
SUBJECT         MARKS         GRADE


Bangla                        F
English                       F
Math                          F
ICT                           F
++++++++++++++++++++++++++++++++++++
NAME: mazharul islam
StudentID: 161953
++++++++++++++++++++++++++++++++++++
SUBJECT         MARKS         GRADE


Bangla                           F
English                          F
Math                             F
ICT                              F
++++++++++++++++++++++++++++++++++++
NAME: mazharul islam
StudentID: 161953
++++++++++++++++++++++++++++++++++++
SUBJECT         MARKS         GRADE


Bangla                          F
English                         F
Math                            F
ICT                             F
